module gitlab.com/git-pushers/ticket-service

go 1.21.3

require (
	github.com/golang/protobuf v1.5.3 // indirect
	github.com/grpc-ecosystem/grpc-gateway/v2 v2.18.1 // indirect
	golang.org/x/net v0.17.0 // indirect
	golang.org/x/sys v0.13.0 // indirect
	golang.org/x/text v0.14.0 // indirect
	google.golang.org/genproto v0.0.0-20231211222908-989df2bf70f3 // indirect
	google.golang.org/genproto/googleapis/api v0.0.0-20231212172506-995d672761c0 // indirect
	google.golang.org/genproto/googleapis/rpc v0.0.0-20231211222908-989df2bf70f3 // indirect
	google.golang.org/grpc v1.60.0 // indirect
	google.golang.org/protobuf v1.31.0 // indirect
)
